%YAML 1.1
%TAG !u! tag:unity3d.com,2011:
--- !u!1001 &5587561721798851224
PrefabInstance:
  m_ObjectHideFlags: 0
  serializedVersion: 2
  m_Modification:
    serializedVersion: 3
    m_TransformParent: {fileID: 0}
    m_Modifications:
    - target: {fileID: -8679921383154817045, guid: 5c51f86f3c4b54d3187cc31e5647f8ce, type: 3}
      propertyPath: m_LocalScale.x
      value: 6.6139
      objectReference: {fileID: 0}
    - target: {fileID: -8679921383154817045, guid: 5c51f86f3c4b54d3187cc31e5647f8ce, type: 3}
      propertyPath: m_LocalScale.y
      value: 10
      objectReference: {fileID: 0}
    - target: {fileID: -8679921383154817045, guid: 5c51f86f3c4b54d3187cc31e5647f8ce, type: 3}
      propertyPath: m_LocalScale.z
      value: 0.54293
      objectReference: {fileID: 0}
    - target: {fileID: -8679921383154817045, guid: 5c51f86f3c4b54d3187cc31e5647f8ce, type: 3}
      propertyPath: m_LocalPosition.x
      value: 3.0362
      objectReference: {fileID: 0}
    - target: {fileID: -8679921383154817045, guid: 5c51f86f3c4b54d3187cc31e5647f8ce, type: 3}
      propertyPath: m_LocalPosition.y
      value: 0.063504
      objectReference: {fileID: 0}
    - target: {fileID: -8679921383154817045, guid: 5c51f86f3c4b54d3187cc31e5647f8ce, type: 3}
      propertyPath: m_LocalPosition.z
      value: 2.0216
      objectReference: {fileID: 0}
    - target: {fileID: -8679921383154817045, guid: 5c51f86f3c4b54d3187cc31e5647f8ce, type: 3}
      propertyPath: m_LocalRotation.w
      value: 0.7071067
      objectReference: {fileID: 0}
    - target: {fileID: -8679921383154817045, guid: 5c51f86f3c4b54d3187cc31e5647f8ce, type: 3}
      propertyPath: m_LocalRotation.x
      value: -0.7071068
      objectReference: {fileID: 0}
    - target: {fileID: -8679921383154817045, guid: 5c51f86f3c4b54d3187cc31e5647f8ce, type: 3}
      propertyPath: m_LocalRotation.y
      value: 0
      objectReference: {fileID: 0}
    - target: {fileID: -8679921383154817045, guid: 5c51f86f3c4b54d3187cc31e5647f8ce, type: 3}
      propertyPath: m_LocalRotation.z
      value: -0
      objectReference: {fileID: 0}
    - target: {fileID: -8679921383154817045, guid: 5c51f86f3c4b54d3187cc31e5647f8ce, type: 3}
      propertyPath: m_LocalEulerAnglesHint.x
      value: 0
      objectReference: {fileID: 0}
    - target: {fileID: -8679921383154817045, guid: 5c51f86f3c4b54d3187cc31e5647f8ce, type: 3}
      propertyPath: m_LocalEulerAnglesHint.y
      value: 0
      objectReference: {fileID: 0}
    - target: {fileID: -8679921383154817045, guid: 5c51f86f3c4b54d3187cc31e5647f8ce, type: 3}
      propertyPath: m_LocalEulerAnglesHint.z
      value: 0
      objectReference: {fileID: 0}
    - target: {fileID: 919132149155446097, guid: 5c51f86f3c4b54d3187cc31e5647f8ce, type: 3}
      propertyPath: m_Name
      value: cheezstack
      objectReference: {fileID: 0}
    m_RemovedComponents: []
    m_RemovedGameObjects: []
    m_AddedGameObjects: []
    m_AddedComponents: []
  m_SourcePrefab: {fileID: 100100000, guid: 5c51f86f3c4b54d3187cc31e5647f8ce, type: 3}
