%YAML 1.1
%TAG !u! tag:unity3d.com,2011:
--- !u!1 &3370544697462645869
GameObject:
  m_ObjectHideFlags: 0
  m_CorrespondingSourceObject: {fileID: 0}
  m_PrefabInstance: {fileID: 0}
  m_PrefabAsset: {fileID: 0}
  serializedVersion: 6
  m_Component:
  - component: {fileID: 8547113299392746057}
  - component: {fileID: 2639962270505157947}
  m_Layer: 0
  m_Name: Collider
  m_TagString: Untagged
  m_Icon: {fileID: 0}
  m_NavMeshLayer: 0
  m_StaticEditorFlags: 0
  m_IsActive: 1
--- !u!4 &8547113299392746057
Transform:
  m_ObjectHideFlags: 0
  m_CorrespondingSourceObject: {fileID: 0}
  m_PrefabInstance: {fileID: 0}
  m_PrefabAsset: {fileID: 0}
  m_GameObject: {fileID: 3370544697462645869}
  serializedVersion: 2
  m_LocalRotation: {x: 0, y: 0, z: 0, w: 1}
  m_LocalPosition: {x: 0, y: 0, z: 0}
  m_LocalScale: {x: 1, y: 1, z: 1}
  m_ConstrainProportionsScale: 0
  m_Children: []
  m_Father: {fileID: 1191913630309444453}
  m_LocalEulerAnglesHint: {x: 0, y: 0, z: 0}
--- !u!65 &2639962270505157947
BoxCollider:
  m_ObjectHideFlags: 0
  m_CorrespondingSourceObject: {fileID: 0}
  m_PrefabInstance: {fileID: 0}
  m_PrefabAsset: {fileID: 0}
  m_GameObject: {fileID: 3370544697462645869}
  m_Material: {fileID: 0}
  m_IncludeLayers:
    serializedVersion: 2
    m_Bits: 0
  m_ExcludeLayers:
    serializedVersion: 2
    m_Bits: 0
  m_LayerOverridePriority: 0
  m_IsTrigger: 0
  m_ProvidesContacts: 0
  m_Enabled: 1
  serializedVersion: 3
  m_Size: {x: 1, y: 1, z: 1}
  m_Center: {x: 0, y: 0, z: 0}
--- !u!1 &8537119124992636774
GameObject:
  m_ObjectHideFlags: 0
  m_CorrespondingSourceObject: {fileID: 0}
  m_PrefabInstance: {fileID: 0}
  m_PrefabAsset: {fileID: 0}
  serializedVersion: 6
  m_Component:
  - component: {fileID: 1191913630309444453}
  m_Layer: 0
  m_Name: CheezeWithBunt
  m_TagString: Untagged
  m_Icon: {fileID: 0}
  m_NavMeshLayer: 0
  m_StaticEditorFlags: 0
  m_IsActive: 1
--- !u!4 &1191913630309444453
Transform:
  m_ObjectHideFlags: 0
  m_CorrespondingSourceObject: {fileID: 0}
  m_PrefabInstance: {fileID: 0}
  m_PrefabAsset: {fileID: 0}
  m_GameObject: {fileID: 8537119124992636774}
  serializedVersion: 2
  m_LocalRotation: {x: 0, y: 0, z: 0, w: 1}
  m_LocalPosition: {x: 0, y: 0, z: 0}
  m_LocalScale: {x: 1, y: 1, z: 1}
  m_ConstrainProportionsScale: 0
  m_Children:
  - {fileID: 2742493239965269780}
  - {fileID: 8547113299392746057}
  m_Father: {fileID: 0}
  m_LocalEulerAnglesHint: {x: 0, y: 0, z: 0}
--- !u!1001 &8911181260474488368
PrefabInstance:
  m_ObjectHideFlags: 0
  serializedVersion: 2
  m_Modification:
    serializedVersion: 3
    m_TransformParent: {fileID: 1191913630309444453}
    m_Modifications:
    - target: {fileID: 6264080034316252062, guid: 99bcfa26d47ca4468aa9c1a87e049c59, type: 3}
      propertyPath: m_Name
      value: cheezwithbant
      objectReference: {fileID: 0}
    - target: {fileID: 6747987868602935588, guid: 99bcfa26d47ca4468aa9c1a87e049c59, type: 3}
      propertyPath: m_LocalPosition.x
      value: 0
      objectReference: {fileID: 0}
    - target: {fileID: 6747987868602935588, guid: 99bcfa26d47ca4468aa9c1a87e049c59, type: 3}
      propertyPath: m_LocalPosition.y
      value: 0
      objectReference: {fileID: 0}
    - target: {fileID: 6747987868602935588, guid: 99bcfa26d47ca4468aa9c1a87e049c59, type: 3}
      propertyPath: m_LocalPosition.z
      value: 0
      objectReference: {fileID: 0}
    - target: {fileID: 6747987868602935588, guid: 99bcfa26d47ca4468aa9c1a87e049c59, type: 3}
      propertyPath: m_LocalRotation.w
      value: 1
      objectReference: {fileID: 0}
    - target: {fileID: 6747987868602935588, guid: 99bcfa26d47ca4468aa9c1a87e049c59, type: 3}
      propertyPath: m_LocalRotation.x
      value: -0
      objectReference: {fileID: 0}
    - target: {fileID: 6747987868602935588, guid: 99bcfa26d47ca4468aa9c1a87e049c59, type: 3}
      propertyPath: m_LocalRotation.y
      value: -0
      objectReference: {fileID: 0}
    - target: {fileID: 6747987868602935588, guid: 99bcfa26d47ca4468aa9c1a87e049c59, type: 3}
      propertyPath: m_LocalRotation.z
      value: -0
      objectReference: {fileID: 0}
    - target: {fileID: 6747987868602935588, guid: 99bcfa26d47ca4468aa9c1a87e049c59, type: 3}
      propertyPath: m_LocalEulerAnglesHint.x
      value: 0
      objectReference: {fileID: 0}
    - target: {fileID: 6747987868602935588, guid: 99bcfa26d47ca4468aa9c1a87e049c59, type: 3}
      propertyPath: m_LocalEulerAnglesHint.y
      value: 0
      objectReference: {fileID: 0}
    - target: {fileID: 6747987868602935588, guid: 99bcfa26d47ca4468aa9c1a87e049c59, type: 3}
      propertyPath: m_LocalEulerAnglesHint.z
      value: 0
      objectReference: {fileID: 0}
    m_RemovedComponents: []
    m_RemovedGameObjects: []
    m_AddedGameObjects: []
    m_AddedComponents:
    - targetCorrespondingSourceObject: {fileID: 6264080034316252062, guid: 99bcfa26d47ca4468aa9c1a87e049c59, type: 3}
      insertIndex: -1
      addedObject: {fileID: 4456171094581376152}
  m_SourcePrefab: {fileID: 100100000, guid: 99bcfa26d47ca4468aa9c1a87e049c59, type: 3}
--- !u!4 &2742493239965269780 stripped
Transform:
  m_CorrespondingSourceObject: {fileID: 6747987868602935588, guid: 99bcfa26d47ca4468aa9c1a87e049c59, type: 3}
  m_PrefabInstance: {fileID: 8911181260474488368}
  m_PrefabAsset: {fileID: 0}
--- !u!1 &3261903274189153710 stripped
GameObject:
  m_CorrespondingSourceObject: {fileID: 6264080034316252062, guid: 99bcfa26d47ca4468aa9c1a87e049c59, type: 3}
  m_PrefabInstance: {fileID: 8911181260474488368}
  m_PrefabAsset: {fileID: 0}
--- !u!114 &4456171094581376152
MonoBehaviour:
  m_ObjectHideFlags: 0
  m_CorrespondingSourceObject: {fileID: 0}
  m_PrefabInstance: {fileID: 0}
  m_PrefabAsset: {fileID: 0}
  m_GameObject: {fileID: 3261903274189153710}
  m_Enabled: 1
  m_EditorHideFlags: 0
  m_Script: {fileID: 11500000, guid: eaf3fd2e08b74124ca23cd2817c358d4, type: 3}
  m_Name: 
  m_EditorClassIdentifier: 
  occupateMap:
  - {x: 0, y: 0}
  - {x: 0, y: 1}
  - {x: 0, y: 2}
  - {x: 1, y: 0}
  - {x: 1, y: 1}
  - {x: 1, y: 2}
  - {x: 0, y: 0}
  - {x: 0, y: 0}
  - {x: 0, y: 0}
  pickUpSound: {fileID: 0}
  dropSound: {fileID: 0}
  rotateSound: {fileID: 0}
